tables_figures
…
Annual models from DMED data.

Load data

hsi_data <-
  read_rds("data/hsi_data.rds")

#inspect
hsi_data %>% 
  filter(type %in% "Hospitalizations", 
         year %in% "2011",
         site_name %in% "Fort Hood") %>% 
  arrange(desc(value))

## # A tibble: 30 x 10
##    site_name  year index         value type  count population  rate value_scaled
##    <fct>     <int> <fct>         <dbl> <fct> <dbl>      <dbl> <dbl>        <dbl>
##  1 Fort Hood  2011 hours_hi_gt~ 1941   Hosp~     7     48221. 0.145         3.22
##  2 Fort Hood  2011 hours_tmp_g~ 1855   Hosp~     7     48221. 0.145         3.75
##  3 Fort Hood  2011 hours_wbgt_~  755   Hosp~     7     48221. 0.145         1.85
##  4 Fort Hood  2011 hours_tmp_g~  692   Hosp~     7     48221. 0.145         6.48
##  5 Fort Hood  2011 hours_hi_gt~  253   Hosp~     7     48221. 0.145         6.91
##  6 Fort Hood  2011 max_hi_may_~  101.  Hosp~     7     48221. 0.145         2.77
##  7 Fort Hood  2011 max_tmp_may~  100.  Hosp~     7     48221. 0.145         2.88
##  8 Fort Hood  2011 mean_hi_may~   88.8 Hosp~     7     48221. 0.145         2.40
##  9 Fort Hood  2011 mean_tmp_ma~   88.0 Hosp~     7     48221. 0.145         2.69
## 10 Fort Hood  2011 max_wbgt_ma~   86.0 Hosp~     7     48221. 0.145         1.24
## # ... with 20 more rows, and 1 more variable: count_scaled <dbl>
…
# Temperature slope estimates (1991-2018)
tmp_slopes %>% 
    unnest(tidy) %>%
    dplyr::select(site_name, index, term:p.value) %>% 
    filter(term %in% "year") 

## # A tibble: 300 x 7
##    site_name    index             term  estimate std.error statistic    p.value
##    <fct>        <fct>             <chr>    <dbl>     <dbl>     <dbl>      <dbl>
##  1 Fort Benning mean_tmp          year    0.0716    0.0215      3.33 0.00260   
##  2 Fort Benning mean_hi           year    0.0824    0.0230      3.58 0.00139   
##  3 Fort Benning mean_wbgt         year    0.0511    0.0216      2.36 0.0258    
##  4 Fort Benning max_tmp           year    0.131     0.0284      4.62 0.0000918 
##  5 Fort Benning max_hi            year    0.144     0.0257      5.61 0.00000670
##  6 Fort Benning max_wbgt          year    0.0763    0.0188      4.05 0.000406  
##  7 Fort Benning mean_tmp_may_sep  year    0.0811    0.0291      2.79 0.00984   
##  8 Fort Benning mean_hi_may_sep   year    0.0976    0.0356      2.74 0.0108    
##  9 Fort Benning mean_wbgt_may_sep year    0.0471    0.0209      2.25 0.0328    
## 10 Fort Benning max_tmp_may_sep   year    0.153     0.0462      3.30 0.00279   
## # ... with 290 more rows
…
